Longitude,Latitude
175.6408997,-40.39456177
175.649826,-40.42900848
175.6401825,-40.3939209
175.6521759,-40.40429306
175.6569214,-40.41204834
175.6416626,-40.39481354
175.6404877,-40.39430237
175.6406708,-40.39453888
175.6400604,-40.39376068
175.6466827,-40.40213013
175.6435394,-40.39769745
175.6529236,-40.41622162
175.6434784,-40.39762115
175.653137,-40.420635
175.646093,-40.403007
175.6434,-40.397776
